{
    "data":[
        {
            "id":1,
            "category":"dokter umum",

        },
        {
            "id":2,
            "category":"psikiater",

        },
        {
            "id":3,
            "category":"dokter obat",

        },
        {
            "id":4,
            "category":"dokter umum",

        },
    ]
}