{
    "data":[
        {
            "id":1,
            "name":"Alexander Jannie",
            "kelamin":"Wanita"
        },
        {
            "id":2,
            "name":"John McParker Steve",
            "kelamin":"Pria"

        },
        {
            "id":3,
            "name":"Nairobi Putri Hayza",
            "kelamin":"Wanita"
        },
        {
            "id":4,
            "name":"James Rivillia",
            "kelamin":"Pria"
        },
    ]
}